<?xml version="1.0" encoding="UTF-8" standalone="no"?>
<!-- Generator: Adobe Illustrator 23.1.0, SVG Export Plug-In . SVG Version: 6.00 Build 0)  -->

<svg
   version="1.1"
   id="Livello_1"
   x="0px"
   y="0px"
   viewBox="0 0 389.75899 312.22901"
   xml:space="preserve"
   sodipodi:docname="ldto23.svg"
   width="389.759"
   height="312.229"
   inkscape:version="1.1.2 (0a00cf5339, 2022-02-04)"
   xmlns:inkscape="http://www.inkscape.org/namespaces/inkscape"
   xmlns:sodipodi="http://sodipodi.sourceforge.net/DTD/sodipodi-0.dtd"
   xmlns="http://www.w3.org/2000/svg"
   xmlns:svg="http://www.w3.org/2000/svg"><defs
   id="defs125">
	
	
</defs><sodipodi:namedview
   id="namedview123"
   pagecolor="#ffffff"
   bordercolor="#666666"
   borderopacity="1.0"
   inkscape:pageshadow="2"
   inkscape:pageopacity="0.0"
   inkscape:pagecheckerboard="0"
   showgrid="false"
   height="312.229px"
   inkscape:zoom="1.1032732"
   inkscape:cx="218.89411"
   inkscape:cy="354.39999"
   inkscape:window-width="1920"
   inkscape:window-height="1043"
   inkscape:window-x="0"
   inkscape:window-y="0"
   inkscape:window-maximized="1"
   inkscape:current-layer="Livello_1" />
<style
   type="text/css"
   id="style2">
	.st0{enable-background:new    ;}
	.st1{fill:#FFFFFF;}
	.st2{fill-rule:evenodd;clip-rule:evenodd;}
	.st3{fill-rule:evenodd;clip-rule:evenodd;fill:#FCE90A;}
	.st4{fill-rule:evenodd;clip-rule:evenodd;fill:#FFFFFF;}
</style>
<g
   id="g118"
   transform="translate(-107.03574,-89.47107)">
		<path
   class="st2"
   d="m 396.6,150.8 c 0,0 55.6,-28.7 75.2,-35.6 5.7,-2 21.1,-5 24.3,0.1 2.3,3.6 -1.5,7.9 -5.7,15.7 -4.6,8.6 -19.3,25.1 -28.2,29.2 -8.8,4.1 -50.7,16.9 -50.7,16.9 z"
   id="path42" />
		<path
   class="st2"
   d="m 212.6,172.1 c 0,0 -62.4,-5.2 -83.1,-4.1 -6.1,0.3 -21.4,3.4 -22.4,9.4 -0.7,4.2 4.4,6.7 11.2,12.3 7.6,6.2 27.4,15.8 37.3,16.2 9.7,0.4 53.3,-3.8 53.3,-3.8 z"
   id="path44" />
		<polygon
   class="st2"
   points="227.7,398.9 294.7,398.3 294,362.6 273.4,350.9 264.4,376.6 238.4,392.3 "
   id="polygon46" />
		<path
   class="st3"
   d="m 265.5,378.3 c -0.4,-0.2 -0.7,-1 -1,-2.1 l -0.1,0.3 -26,15.8 -10.8,6.5 67,-0.6 -0.1,-5.3 c -9.9,-4.1 -19.8,-8.7 -29,-14.6 z"
   id="path48" />
		<polygon
   class="st2"
   points="407.4,401.7 340.3,401.1 341,365.5 361.7,353.8 370.6,379.4 396.6,395.2 "
   id="polygon50" />
		<path
   class="st3"
   d="m 369.5,381.2 c 0.4,-0.2 0.7,-1 1,-2.1 l 0.1,0.3 26,15.8 10.8,6.5 -67,-0.6 0.1,-5.3 c 10,-4.1 19.8,-8.8 29,-14.6 z"
   id="path52" />
		<path
   class="st2"
   d="M 384.8,207.8 C 371.5,160.3 347.6,111.3 345.2,107.1 337.8,93.7 323.2,89.9 323,89.8 c -3.8,-1.4 -32.5,2 -36.7,4 -9.5,4.4 -36.1,60.9 -40.1,74.9 -2.7,9.4 -13.3,47 -13.1,81.7 0.2,33.8 12.2,86.4 21.8,87.3 13.5,1.4 88,-1.2 101.4,-0.1 28.4,2.3 36.8,-49.2 37.4,-52.2 1.5,-7.1 0.7,-42.9 -8.9,-77.6 z"
   id="path54" />
		<polygon
   class="st3"
   points="287.9,140.7 301.6,158.2 280.5,153 "
   id="polygon56" />
		<g
   id="g66">
			<polygon
   class="st4"
   points="280.4,102.5 280.4,122.5 282.6,119.1 283,103.1 285.5,93.9 282.3,96.5 "
   id="polygon58" />
			<g
   id="g64">
				<ellipse
   class="st4"
   cx="277.5"
   cy="132.10001"
   rx="12.3"
   ry="14.7"
   id="ellipse60" />
				<ellipse
   class="st4"
   cx="277.5"
   cy="132.10001"
   rx="10.2"
   ry="12.3"
   id="ellipse62" />
			</g>
		</g>
		<g
   id="g76">
			<polygon
   class="st4"
   points="303.5,100.4 303.5,122 305.7,121.3 306.3,101.1 309,89.8 306.1,90 "
   id="polygon68" />
			<g
   id="g74">
				<ellipse
   class="st4"
   cx="303.60001"
   cy="132.3"
   rx="14.9"
   ry="13.9"
   id="ellipse70" />
				<ellipse
   class="st4"
   cx="300.29999"
   cy="132.3"
   rx="11"
   ry="13.2"
   id="ellipse72" />
			</g>
		</g>
		<g
   id="g80">
			<path
   class="st1"
   d="m 255.6,144.6 c 0,2.5 0,5 0.2,7.5 0.4,3.8 0,7.6 0.2,11.4 0.3,5.6 1.6,10.9 5.7,15 3.8,3.8 9,6.1 14.1,7.5 6.2,1.7 12.8,2.2 19.3,2.2 6.8,0 13.7,-0.1 20.5,-0.7 5.7,-0.5 11.4,-1.5 16.5,-4.1 4.5,-2.3 8.5,-5.5 12.1,-8.9 7.2,-6.8 13.3,-14.9 18.5,-23.3 0.5,-0.9 1.1,-1.7 1.6,-2.6 0.4,-0.6 -0.6,-1.2 -1,-0.6 -4.8,8 -10.3,15.7 -16.7,22.5 -3.5,3.7 -7.3,7.1 -11.5,9.8 -4.4,2.9 -9.2,4.5 -14.4,5.4 -6.5,1.1 -13.1,1.1 -19.7,1.2 -6.6,0.1 -13.3,0.1 -19.8,-1 -5.5,-0.9 -10.9,-2.7 -15.5,-5.8 -2.1,-1.4 -3.9,-3.2 -5.3,-5.3 -1.6,-2.5 -2.4,-5.4 -2.8,-8.3 -0.6,-4.5 -0.2,-9.2 -0.4,-13.7 -0.1,-1.4 -0.2,-2.8 -0.2,-4.2 0,-1.3 0,-2.7 0,-4 -0.3,-0.8 -1.4,-0.8 -1.4,0 z"
   id="path78" />
		</g>
		<g
   id="g84">
			<path
   class="st1"
   d="m 264.6,180.6 c 3.1,20.8 2.3,42.1 -0.9,62.9 -1.6,10.4 -3.8,20.7 -6.3,30.9 -1.2,4.8 -2.6,9.6 -3.9,14.4 -0.6,2.3 -1.1,4.7 -1.7,7 -1.6,6.6 -6.1,12 -10.2,17.2 -0.5,0.6 0.4,1.4 0.8,0.8 3.8,-4.9 8.2,-10 10,-16 0.6,-2.1 1,-4.3 1.5,-6.4 1,-4.2 2.3,-8.4 3.4,-12.6 5.4,-20.6 9.3,-41.6 10.1,-62.9 0.5,-11.9 -0.1,-23.8 -1.9,-35.6 0.1,-0.7 -1,-0.4 -0.9,0.3 z"
   id="path82" />
		</g>
		<g
   id="g88">
			<path
   class="st1"
   d="m 336.4,179.7 c -0.7,20.3 0.7,40.9 4.2,60.9 1.8,10.1 4.1,20.1 7.8,29.7 1.8,4.7 4,9.2 6.5,13.6 2.3,4 4.2,8.3 6.5,12.3 1.2,2.1 2.6,4.2 4.2,6.1 1.7,2 3.7,3.8 5.6,5.5 3.5,3.2 7.1,6.3 10.9,9.2 0.6,0.4 1.2,-0.6 0.6,-1 -3.4,-2.6 -6.7,-5.3 -9.9,-8.2 -3.4,-3.1 -6.7,-6.2 -9.2,-10.1 -2.4,-3.8 -4.2,-7.8 -6.3,-11.8 -2.3,-4.4 -4.8,-8.7 -6.7,-13.3 -3.9,-9.4 -6.4,-19.4 -8.3,-29.4 -1.9,-9.9 -3.1,-19.8 -3.9,-29.8 -0.9,-11.2 -1.2,-22.5 -0.8,-33.7 0,-0.8 -1.1,-0.8 -1.2,0 z"
   id="path86" />
		</g>
		<g
   id="g92">
			<path
   class="st1"
   d="m 357.3,289.3 c -13.3,-1.2 -26.7,-1.2 -40,-0.7 -13.4,0.6 -26.7,1.7 -40.1,2.7 -7.5,0.6 -15,1.1 -22.6,1.7 -0.7,0.1 -0.7,1.2 0,1.2 13.4,-1 26.7,-2.1 40.1,-3 13.3,-1 26.7,-1.8 40.1,-1.7 7.5,0 15,0.3 22.5,1 0.8,0.1 0.8,-1.1 0,-1.2 z"
   id="path90" />
		</g>
		<circle
   class="st2"
   cx="226.39999"
   cy="187.39999"
   r="12.6"
   id="circle94" />
		<circle
   class="st2"
   cx="389.79999"
   cy="172.2"
   r="12.6"
   id="circle96" />
		<circle
   class="st2"
   cx="287.10001"
   cy="347.5"
   r="7.5999999"
   id="circle98" />
		
			<circle
   transform="matrix(0.1602,-0.9871,0.9871,0.1602,-50.8118,635.2915)"
   class="st2"
   cx="347.89999"
   cy="347.5"
   id="ellipse100"
   r="7.5999999" />
		<rect
   x="199.60001"
   y="186.8"
   class="st2"
   width="49.400002"
   height="4.8000002"
   id="rect102" />
		
			<rect
   x="359"
   y="168.8"
   transform="matrix(0.914,-0.4058,0.4058,0.914,-35.7185,172.8918)"
   class="st2"
   width="61.799999"
   height="3.8"
   id="rect104" />
		<rect
   x="284.20001"
   y="329.39999"
   class="st2"
   width="2.9000001"
   height="30.4"
   id="rect106" />
		<rect
   x="347"
   y="332.29999"
   class="st2"
   width="2.9000001"
   height="30.4"
   id="rect108" />
		<path
   class="st2"
   d="m 295.5,134.1 c -1,1.7 -3.6,2.1 -5.6,0.9 -2,-1.1 -2.8,-3.4 -1.7,-5.1 1.1,-1.7 3.6,-2.1 5.6,-0.9 2,1.1 2.8,3.4 1.7,5.1 z"
   id="path110" />
		<path
   class="st2"
   d="m 288.9,134.1 c -1.1,1.7 -3.6,2.1 -5.6,0.9 -2,-1.1 -2.8,-3.4 -1.7,-5.1 1.1,-1.7 3.6,-2.1 5.6,-0.9 2,1.1 2.8,3.4 1.7,5.1 z"
   id="path112" />
		<g
   id="g116">
			<path
   class="st1"
   d="m 316.4,127 c 2.8,-5.5 6.8,-10.3 11.3,-14.5 4.3,-4.1 9.2,-8.1 15.3,-9 0.7,-0.1 0.4,-1.2 -0.3,-1.1 -6.1,0.9 -11.2,5 -15.5,9.1 -4.6,4.3 -8.8,9.3 -11.7,15 -0.4,0.6 0.6,1.1 0.9,0.5 z"
   id="path114" />
		</g>
	</g>
</svg>
